<svg width="26" height="36" viewBox="0 0 26 36" fill="none" xmlns="http://www.w3.org/2000/svg">
<path d="M7.75757 0C7.52132 0.0421875 7.32163 0.2025 7.226 0.424688C7.13038 0.646875 7.15288 0.9 7.28507 1.1025C8.96694 3.72937 8.94163 5.63344 8.36507 7.7175C7.83632 6.53625 6.91663 5.63625 5.89007 5.0175C4.15194 3.97125 2.12413 3.6 0.760066 3.6C0.737566 3.6 0.715066 3.6 0.692566 3.6C0.411316 3.62812 0.172254 3.81656 0.0822537 4.08094C-0.0105589 4.34812 0.0625662 4.64344 0.265066 4.8375C1.37038 5.90906 1.82038 7.02562 2.04257 8.8425C2.26475 10.6594 2.20007 13.1287 2.20007 16.56C2.20007 21.8531 4.29538 24.8794 7.08257 26.415C7.23444 26.4994 7.40038 26.5641 7.55507 26.64H5.80007C5.77757 26.64 5.75507 26.64 5.73257 26.64C5.36132 26.6737 5.07725 26.9859 5.08007 27.36V30.24C5.08007 30.6366 5.4035 30.96 5.80007 30.96H6.52007V35.28C6.52007 35.6766 6.8435 36 7.24007 36H20.2001C20.5966 36 20.9201 35.6766 20.9201 35.28V30.96H21.6401C22.0366 30.96 22.3601 30.6366 22.3601 30.24V27.36C22.3601 26.9634 22.0366 26.64 21.6401 26.64H20.8976C21.9719 25.7878 22.5569 24.6769 22.9451 23.6475C23.3388 22.6012 23.5638 21.6253 23.8901 21.015C24.2163 20.4047 24.4469 20.16 25.2401 20.16C25.6366 20.16 25.9601 19.8366 25.9601 19.44C25.9601 17.5078 24.4469 15.84 22.3601 15.84C20.8019 15.84 19.6066 16.6641 18.9401 17.775C18.7066 18.1659 18.5126 18.5934 18.3776 19.035C17.7279 18.4022 16.8532 18 15.8801 18C15.4835 18 15.1123 18.0816 14.7551 18.2025C15.0504 17.7412 15.3879 17.2912 15.7451 16.8075C16.8335 15.3281 18.0401 13.5337 18.0401 10.575C18.0401 8.11406 17.2441 5.50406 15.5651 3.465C13.886 1.42594 11.2929 0 7.89257 0C7.87007 0 7.84757 0 7.82507 0C7.80257 0 7.78007 0 7.75757 0ZM9.08507 1.575C11.4504 1.85625 13.2335 2.89406 14.4626 4.3875C15.8969 6.12844 16.6001 8.42906 16.6001 10.575C16.6001 13.1597 15.6466 14.4984 14.5751 15.9525C13.5569 17.3362 12.4123 18.8634 12.3026 21.24C12.2913 21.3609 12.2801 21.4762 12.2801 21.6C12.2801 23.58 13.9001 25.2 15.8801 25.2C17.8601 25.2 19.4801 23.58 19.4801 21.6C19.4801 20.43 19.7107 19.2741 20.1776 18.495C20.6444 17.7159 21.2548 17.28 22.3601 17.28C23.5301 17.28 24.1713 18.0197 24.3626 18.99C23.6004 19.2544 22.9676 19.7072 22.6301 20.34C22.166 21.2147 21.9466 22.2187 21.5951 23.1525C21.2435 24.0862 20.7907 24.93 19.9751 25.56C19.1763 26.1759 17.9726 26.6231 15.9926 26.64C15.9532 26.64 15.9194 26.64 15.8801 26.64C11.1663 26.64 7.24007 22.7137 7.24007 18C7.24007 14.3944 8.54225 11.8069 9.42257 9.1575C10.1904 6.84562 10.4435 4.39875 9.08507 1.575ZM2.26757 5.2425C3.21819 5.41687 4.23913 5.70656 5.14757 6.255C6.57632 7.11562 7.58882 8.33625 7.39757 10.44C7.38632 10.485 7.37788 10.53 7.37507 10.575C7.37225 10.5806 7.37788 10.5919 7.37507 10.5975C6.6185 12.6534 5.80007 15.0019 5.80007 18C5.80007 21.2175 7.36663 24.1116 9.76007 25.965C9.06819 25.7625 8.396 25.4925 7.78007 25.155C5.40069 23.8444 3.64007 21.4903 3.64007 16.56C3.64007 13.1512 3.72725 10.6847 3.48257 8.685C3.31944 7.34625 2.87225 6.24656 2.26757 5.2425ZM15.8801 19.44C17.081 19.44 18.0401 20.3991 18.0401 21.6C18.0401 22.8009 17.081 23.76 15.8801 23.76C14.6791 23.76 13.7201 22.8009 13.7201 21.6C13.7201 20.3991 14.6791 19.44 15.8801 19.44ZM6.52007 28.08H20.9201V29.52H6.52007V28.08ZM7.96007 30.96H19.4801V34.56H7.96007V30.96Z" fill="#40D0BF"/>
</svg>
