<svg width="23" height="26" viewBox="0 0 23 26" fill="none" xmlns="http://www.w3.org/2000/svg">
<path fill-rule="evenodd" clip-rule="evenodd" d="M0.565918 25.8081L2.2827 6.60729H6.36004V6.17091C6.36004 3.27882 8.66592 0.934326 11.5104 0.934326C14.3548 0.934326 16.6607 3.27882 16.6607 6.17091V6.60729H20.738L22.4548 25.8081H0.565918ZM3.22337 7.6546L1.69387 24.7608H21.3269L19.7974 7.6546H16.6607V8.94446C16.9191 9.11575 17.0899 9.41222 17.0899 9.74924C17.0899 10.2795 16.6672 10.7093 16.1457 10.7093C15.6242 10.7093 15.2014 10.2795 15.2014 9.74924C15.2014 9.41222 15.3722 9.11575 15.6306 8.94446V7.6546H7.39011V8.94446C7.6485 9.11575 7.8193 9.41222 7.8193 9.74924C7.8193 10.2795 7.39656 10.7093 6.87507 10.7093C6.35359 10.7093 5.93085 10.2795 5.93085 9.74924C5.93085 9.41222 6.10165 9.11575 6.36004 8.94446V7.6546H3.22337ZM11.5104 1.98164C9.23481 1.98164 7.39011 3.85724 7.39011 6.17091V6.60729H15.6306V6.17091C15.6306 3.85724 13.7859 1.98164 11.5104 1.98164Z" fill="#40536F"/>
</svg>
