<svg width="15" height="14" viewBox="0 0 15 14" fill="none" xmlns="http://www.w3.org/2000/svg">
<path fill-rule="evenodd" clip-rule="evenodd" d="M4.9418 0.326737C4.9418 0.146285 5.09151 0 5.27619 0H13.7102C14.4225 0 15 0.564242 15 1.26027V11.3877C15 12.0837 14.4225 12.648 13.7102 12.648H12.1947C12.01 12.648 11.8603 12.5017 11.8603 12.3212C11.8603 12.1408 12.01 11.9945 12.1947 11.9945H13.7102C14.0532 11.9945 14.3312 11.7228 14.3312 11.3877V1.26027C14.3312 0.925146 14.0532 0.653474 13.7102 0.653474H5.27619C5.09151 0.653474 4.9418 0.507189 4.9418 0.326737ZM1.28981 2.28254C0.946829 2.28254 0.66879 2.55421 0.66879 2.88934V12.7397C0.66879 13.0749 0.94683 13.3465 1.28981 13.3465H9.75675C10.0997 13.3465 10.3778 13.0749 10.3778 12.7397V2.88934C10.3778 2.55421 10.0997 2.28254 9.75675 2.28254H1.28981ZM0 2.88934C0 2.19331 0.577467 1.62907 1.28981 1.62907H9.75675C10.4691 1.62907 11.0466 2.19331 11.0466 2.88934V12.7397C11.0466 13.4358 10.4691 14 9.75675 14H1.28981C0.577468 14 0 13.4358 0 12.7397V2.88934ZM5.77037 5.23444C5.95505 5.23444 6.10477 5.38072 6.10477 5.56117V7.4878H8.24127C8.42595 7.4878 8.57566 7.63408 8.57566 7.81453C8.57566 7.99498 8.42595 8.14127 8.24127 8.14127H6.10477V10.0679C6.10477 10.2483 5.95505 10.3946 5.77037 10.3946C5.58569 10.3946 5.43598 10.2483 5.43598 10.0679V8.14127H3.29947C3.11479 8.14127 2.96508 7.99498 2.96508 7.81453C2.96508 7.63408 3.11479 7.4878 3.29947 7.4878H5.43598V5.56117C5.43598 5.38072 5.58569 5.23444 5.77037 5.23444Z" fill="#989898"/>
</svg>
