<svg width="106" height="57" viewBox="0 0 106 57" fill="none" xmlns="http://www.w3.org/2000/svg">
<path d="M58.923 29.1138C58.6231 29.2601 58.8239 30.6938 57.99 30.9761C57.2467 31.2277 57.0199 30.415 56.1238 30.4174C55.2278 30.4198 54.8333 30.0103 54.2576 28.7413C54.2576 28.7413 53.8367 27.4578 54.0709 26.6928C54.3013 25.9404 54.6194 25.2329 55.3773 25.0168C56.6837 24.6443 58.0701 25.389 58.7364 26.6929C59.168 27.5376 59.4377 28.8629 58.923 29.1138Z" fill="url(#paint0_linear)"/>
<path d="M58.923 29.1138C58.6231 29.2601 58.8239 30.6938 57.99 30.9761C57.2467 31.2277 57.0199 30.415 56.1238 30.4174C55.2278 30.4198 54.8333 30.0103 54.2576 28.7413C54.2576 28.7413 53.8367 27.4578 54.0709 26.6928C54.3013 25.9404 54.6194 25.2329 55.3773 25.0168C56.6837 24.6443 58.0701 25.389 58.7364 26.6929C59.168 27.5376 59.4377 28.8629 58.923 29.1138Z" fill="url(#paint1_linear)"/>
<path d="M57.0569 32.0934C55.0041 32.2797 55.3774 33.0246 57.0569 32.8384C58.7364 32.6521 58.923 32.6521 59.4829 32.4659C60.0427 32.2797 62.0746 32.2587 61.7222 31.3485C61.3718 30.4434 60.5913 31.0445 59.2963 31.9072C58.6276 32.3527 58.2454 31.9856 57.0569 32.0934Z" fill="url(#paint2_linear)"/>
<path d="M57.0569 32.0934C55.0041 32.2797 55.3774 33.0246 57.0569 32.8384C58.7364 32.6521 58.923 32.6521 59.4829 32.4659C60.0427 32.2797 62.0746 32.2587 61.7222 31.3485C61.3718 30.4434 60.5913 31.0445 59.2963 31.9072C58.6276 32.3527 58.2454 31.9856 57.0569 32.0934Z" fill="url(#paint3_linear)"/>
<path d="M62.4687 40.66C62.352 40.2861 62.6095 39.6525 62.8419 39.5426C63.0744 39.4328 63.3492 39.5474 63.5884 39.7289C63.9008 39.9658 64.1317 40.3071 63.9616 40.66C63.8203 40.9531 63.4456 41.2625 63.2152 41.0325C63.0285 40.8462 62.577 41.0072 62.4687 40.66Z" fill="url(#paint4_linear)"/>
<path d="M62.4687 40.66C62.352 40.2861 62.6095 39.6525 62.8419 39.5426C63.0744 39.4328 63.3492 39.5474 63.5884 39.7289C63.9008 39.9658 64.1317 40.3071 63.9616 40.66C63.8203 40.9531 63.4456 41.2625 63.2152 41.0325C63.0285 40.8462 62.577 41.0072 62.4687 40.66Z" fill="url(#paint5_linear)"/>
<path d="M80.197 46.4331C79.8705 45.498 78.7355 45.2607 78.3309 46.4331C77.9263 47.6055 79.3082 48.2281 79.8238 47.9229C80.3394 47.6178 80.5236 47.3682 80.197 46.4331Z" fill="url(#paint6_linear)"/>
<path d="M80.197 46.4331C79.8705 45.498 78.7355 45.2607 78.3309 46.4331C77.9263 47.6055 79.3082 48.2281 79.8238 47.9229C80.3394 47.6178 80.5236 47.3682 80.197 46.4331Z" fill="url(#paint7_linear)"/>
<path d="M89.3411 40.4738C88.7821 40.1913 88.2786 39.8546 89.3411 39.5426C90.4037 39.2306 90.6482 39.9175 90.834 40.4738C91.0206 41.0325 90.42 40.9156 89.3411 40.4738Z" fill="url(#paint8_linear)"/>
<path d="M89.3411 40.4738C88.7821 40.1913 88.2786 39.8546 89.3411 39.5426C90.4037 39.2306 90.6482 39.9175 90.834 40.4738C91.0206 41.0325 90.42 40.9156 89.3411 40.4738Z" fill="url(#paint9_linear)"/>
<path d="M99.6049 36.3767C98.366 35.504 99.1016 34.9057 99.6049 35.0731C100.725 35.4456 101.471 36.0043 102.777 37.1217C103.22 37.5003 104.084 39.7289 102.777 38.6115C101.471 37.4941 100.844 37.2495 99.6049 36.3767Z" fill="url(#paint10_linear)"/>
<path d="M99.6049 36.3767C98.366 35.504 99.1016 34.9057 99.6049 35.0731C100.725 35.4456 101.471 36.0043 102.777 37.1217C103.22 37.5003 104.084 39.7289 102.777 38.6115C101.471 37.4941 100.844 37.2495 99.6049 36.3767Z" fill="url(#paint11_linear)"/>
<path d="M105.39 30.4174C105.39 30.4174 104.629 29.4807 104.084 30.6036C103.538 31.7265 103.773 32.1744 104.457 32.4659C105.029 32.7101 105.692 32.4729 105.95 31.9072C106.207 31.3415 105.39 30.4174 105.39 30.4174Z" fill="url(#paint12_linear)"/>
<path d="M105.39 30.4174C105.39 30.4174 104.629 29.4807 104.084 30.6036C103.538 31.7265 103.773 32.1744 104.457 32.4659C105.029 32.7101 105.692 32.4729 105.95 31.9072C106.207 31.3415 105.39 30.4174 105.39 30.4174Z" fill="url(#paint13_linear)"/>
<path d="M95.1262 22.7821C93.5459 22.5814 93.6778 22.2233 94.1931 22.2234C94.7529 22.2235 95.01 21.8381 95.3128 21.6646C95.6155 21.4911 96.4876 21.5944 96.9923 22.0371C97.3115 22.317 97.6039 22.9683 97.1789 22.9683C96.4325 22.9683 96.7064 22.9828 95.1262 22.7821Z" fill="url(#paint14_linear)"/>
<path d="M95.1262 22.7821C93.5459 22.5814 93.6778 22.2233 94.1931 22.2234C94.7529 22.2235 95.01 21.8381 95.3128 21.6646C95.6155 21.4911 96.4876 21.5944 96.9923 22.0371C97.3115 22.317 97.6039 22.9683 97.1789 22.9683C96.4325 22.9683 96.7064 22.9828 95.1262 22.7821Z" fill="url(#paint15_linear)"/>
<path d="M96.8057 12.167C96.2362 11.7074 95.686 11.608 94.9395 11.9806C94.1931 12.3532 93.8199 15.519 94.9395 15.8916C95.9366 16.2234 96.8146 15.3856 97.1789 14.4018C97.4862 13.5719 97.4951 12.7233 96.8057 12.167Z" fill="url(#paint16_linear)"/>
<path d="M96.8057 12.167C96.2362 11.7074 95.686 11.608 94.9395 11.9806C94.1931 12.3532 93.8199 15.519 94.9395 15.8916C95.9366 16.2234 96.8146 15.3856 97.1789 14.4018C97.4862 13.5719 97.4951 12.7233 96.8057 12.167Z" fill="url(#paint17_linear)"/>
<path d="M87.1018 3.2279C87.2884 2.66921 87.2884 1.73808 86.9151 0.993145C86.749 0.661456 86.5983 0.0942487 87.1018 0.0619976C87.6052 0.0297464 87.6915 -0.059713 88.0348 0.0619976C88.9381 0.382168 88.9595 1.70054 88.4081 2.48298C88.07 2.96258 86.916 3.78415 87.1018 3.2279Z" fill="url(#paint18_linear)"/>
<path d="M87.1018 3.2279C87.2884 2.66921 87.2884 1.73808 86.9151 0.993145C86.749 0.661456 86.5983 0.0942487 87.1018 0.0619976C87.6052 0.0297464 87.6915 -0.059713 88.0348 0.0619976C88.9381 0.382168 88.9595 1.70054 88.4081 2.48298C88.07 2.96258 86.916 3.78415 87.1018 3.2279Z" fill="url(#paint19_linear)"/>
<path d="M65.0813 10.3046C65.0813 9.74594 64.8947 9.18725 64.8947 8.8148C64.8947 8.39073 65.4575 8.99108 65.6411 9.37348C65.8328 9.7724 66.0766 10.5945 65.6411 10.6771C65.4147 10.72 65.0813 10.5346 65.0813 10.3046Z" fill="url(#paint20_linear)"/>
<path d="M65.0813 10.3046C65.0813 9.74594 64.8947 9.18725 64.8947 8.8148C64.8947 8.39073 65.4575 8.99108 65.6411 9.37348C65.8328 9.7724 66.0766 10.5945 65.6411 10.6771C65.4147 10.72 65.0813 10.5346 65.0813 10.3046Z" fill="url(#paint21_linear)"/>
<path d="M60.0427 24.0856C60.0427 24.0856 59.1965 23.6234 58.923 23.3407C58.6496 23.058 58.67 22.9473 59.4829 22.9682C60.3825 23.0791 60.8279 23.1917 61.5356 23.5269C62.4259 24.0333 62.2821 24.2718 62.0955 24.2718C61.2089 24.2718 60.7665 24.3873 60.0427 24.0856Z" fill="url(#paint22_linear)"/>
<path d="M60.0427 24.0856C60.0427 24.0856 59.1965 23.6234 58.923 23.3407C58.6496 23.058 58.67 22.9473 59.4829 22.9682C60.3825 23.0791 60.8279 23.1917 61.5356 23.5269C62.4259 24.0333 62.2821 24.2718 62.0955 24.2718C61.2089 24.2718 60.7665 24.3873 60.0427 24.0856Z" fill="url(#paint23_linear)"/>
<path fill-rule="evenodd" clip-rule="evenodd" d="M57.8034 20.5472C57.6167 19.6161 58.1766 19.2436 58.5498 19.2436C58.7029 19.2436 58.8455 19.2411 58.9819 19.2387C60.0214 19.2205 60.6973 19.2086 62.8419 20.361C63.1079 20.5039 63.3522 20.6535 63.5886 20.7982C64.3321 21.2533 64.9978 21.6608 66.0144 21.6646C66.5297 21.6665 66.6244 21.6661 67.1341 21.4784C67.4275 21.3703 67.2432 21.293 67.0077 21.1941C66.8342 21.1213 66.6329 21.0368 66.5742 20.9197C66.3789 20.5299 66.8927 20.5343 68.0066 20.5439C68.1962 20.5455 68.4031 20.5472 68.627 20.5472C69.1868 20.5472 69.56 19.9886 68.8136 19.2436C67.7186 18.1509 66.4094 17.1777 65.3566 16.3951C64.6838 15.8949 64.1156 15.4726 63.775 15.1466C62.9014 14.3106 63.4018 14.0292 64.1482 14.5879C64.8947 15.1466 65.1934 15.0266 65.2679 14.9604C65.3424 14.8941 65.4139 14.6119 65.2679 14.0292C65.0813 13.2843 65.3093 13.0506 65.8278 13.6568C66.5064 14.4502 67.3213 14.3095 66.7608 13.4705C66.3876 12.9118 66.0144 12.5394 65.0813 12.1669C64.3269 11.8658 62.7185 10.1037 61.933 9.24311C61.747 9.03933 61.6071 8.8861 61.5356 8.8148C60.9347 8.21507 62.242 8.922 63.4018 9.93217C64.6846 11.0495 65.3583 11.1931 66.5742 11.422C66.9996 11.5021 67.1376 11.4184 66.9474 10.8633C66.9374 10.8339 66.9253 10.8022 66.913 10.7695C66.8094 10.4963 66.683 10.163 67.5073 10.6771C68.4134 11.2422 68.9757 11.3958 69.403 11.5124C69.6798 11.588 69.8998 11.6481 70.1199 11.7945C70.4804 12.0343 70.5314 12.0425 70.5718 12.0676C70.5941 12.0815 70.6133 12.1006 70.6797 12.1669C70.6851 12.1723 70.6903 12.1775 70.6954 12.1826C70.8675 12.3546 70.889 12.3761 71.0529 12.1669C71.0529 12.1669 71.3987 11.6194 71.6128 11.422C71.8269 11.2246 71.9493 11.2615 72.1726 11.422C72.4874 11.6481 72.5459 11.6082 72.3592 10.8633C72.1821 10.1561 71.9323 9.62289 71.6808 9.08589C71.4561 8.60625 71.23 8.12358 71.0529 7.51119C70.7299 6.39381 70.5965 5.8292 70.6797 4.71775C70.748 3.80605 71.209 4.4229 71.9389 5.39968C71.9545 5.42051 71.9702 5.44151 71.986 5.46267C72.0773 5.58471 72.1204 5.66445 72.159 5.73582C72.206 5.82291 72.2464 5.89754 72.3592 6.02136C72.631 6.31951 72.7526 6.84589 72.9191 7.69742C73.611 11.2358 74.3525 12.6553 75.9049 14.2154C76.8546 15.1698 76.8275 14.943 76.6769 13.6846C76.6687 13.6163 76.6601 13.5449 76.6514 13.4705C76.2781 10.3046 77.1079 12.3974 77.2112 12.9118C77.6012 14.8529 77.9577 14.5879 78.8907 13.6568C79.2726 13.2757 79.2694 12.8261 79.265 12.1968C79.2645 12.127 79.264 12.055 79.264 11.9807C79.264 11.5962 79.3326 11.2933 79.3988 11.0009C79.4958 10.5722 79.5877 10.1663 79.4506 9.55971C79.1795 8.36033 79.6576 6.25844 80.5703 4.71775C81.1301 3.77263 81.3976 4.02159 81.5033 6.39381C81.5033 8.06988 81.1301 9.55971 80.7569 10.8633C80.1546 12.967 80.7569 16.0777 82.2498 16.4502C83.9293 16.8692 86.0152 14.0151 90.0876 8.25611C92.2686 5.17179 93.4278 4.29622 94.1931 5.27644C95.1262 6.47157 94.5921 7.31314 93.6332 8.06988C92.3269 9.10087 91.7674 9.63451 90.834 11.0495C90.5961 11.4102 90.2782 11.7985 89.9285 12.2257C89.3753 12.9013 88.7426 13.674 88.2214 14.5879C87.1034 16.5484 86.6134 17.6263 86.1687 19.9886C85.9233 21.2922 86.2545 21.3416 87.8482 20.7335C88.4824 20.4915 88.5406 20.6482 88.4081 21.4784C88.3332 21.9471 88.8299 22.3642 89.5277 22.5958C89.808 22.6888 89.9075 22.6515 89.901 22.2233C89.901 21.8508 90.3907 21.3621 90.834 20.9197C91.5805 20.1748 91.7671 21.2922 91.3939 22.0371C91.1983 22.4274 91.0561 23.1318 91.5805 23.1545C92.108 23.1772 92.5133 23.1484 92.8381 23.1253C93.7351 23.0615 94.0183 23.0413 94.5663 24.2718C94.7322 24.6443 94.6712 24.8631 94.0065 25.0167C93.5718 25.1172 92.9472 25.606 92.3538 26.0702C91.9284 26.4032 91.519 26.7235 91.2073 26.879C90.6474 27.1584 90.7229 27.3931 91.2073 27.4377C92.1403 27.5237 91.7671 28.7413 90.834 28.7413C90.4697 28.7413 90.0876 28.7413 89.901 28.5551C89.5401 28.195 88.7813 27.9964 88.5947 28.3689C88.2264 29.104 88.0596 29.238 87.5236 29.6686C87.4522 29.726 87.3742 29.7887 87.2884 29.8587C86.8317 30.2312 87.0994 30.3243 87.8482 30.4174C89.0363 30.5651 89.5496 31.1106 90.3182 31.9275C90.4766 32.0958 90.6458 32.2757 90.834 32.4659C91.8126 33.4552 92.3114 33.8891 93.26 34.5144C95.0559 35.6983 93.6332 37.3079 91.7671 36.0043C90.334 35.0032 89.121 34.4414 88.1281 33.9815C87.8281 33.8426 87.5482 33.7129 87.2884 33.5833C86.1687 33.0246 85.6606 33.0657 84.8624 34.142C84.3099 34.8869 84.8487 35.596 85.9821 36.0043C87.4364 36.5282 87.1711 36.9331 85.6088 36.7492C84.7516 36.6483 84.9772 36.9656 85.6088 37.4941C86.7217 38.4253 86.3553 38.9839 85.049 39.3564C84.3211 39.5639 84.4206 40.1603 84.5653 41.0284C84.6038 41.2595 84.6456 41.5099 84.6758 41.7774C84.6758 43.4535 83.7427 43.8259 81.8766 41.2187C81.7873 41.094 81.7193 40.9785 81.6592 40.8765C81.45 40.5216 81.3367 40.3291 80.7569 40.4738C80.3836 40.5669 80.1706 40.4301 80.0104 40.1013C79.6239 39.3081 78.8907 39.3564 79.264 40.1013C79.6176 40.807 79.5643 41.131 79.264 41.5912C78.8924 42.1605 78.7667 41.8425 78.4695 41.0903C78.3417 40.7668 78.1821 40.3631 77.9577 39.9151C77.8705 39.7412 77.7834 39.6079 77.7057 39.4891C77.4508 39.0991 77.2984 38.8658 77.5844 37.8666C77.7444 37.3079 77.5101 36.4159 76.2781 36.1905C75.6884 36.0826 75.0767 36.8386 74.2189 37.8989C73.991 38.1805 73.7458 38.4836 73.4789 38.7977C73.1057 39.1702 72.9511 39.4983 73.1057 39.9151C73.2603 40.3319 73.1057 40.66 72.7325 40.8462C72.208 41.1079 71.8604 41.5461 71.4909 42.012C71.203 42.375 70.9017 42.7548 70.4931 43.081C69.4584 43.907 69.3734 43.4535 70.1199 42.3361C70.271 42.1099 70.3958 41.9548 70.4978 41.8281C70.7081 41.5667 70.821 41.4264 70.8663 41.0325C70.8945 40.788 71.1072 40.303 71.3265 39.8032C71.6316 39.1076 71.9494 38.3835 71.7994 38.239C71.6778 38.1219 71.7244 37.84 71.7823 37.4897C71.8471 37.0975 71.9261 36.6196 71.7994 36.1905C71.6534 35.6958 71.9158 35.1795 72.3592 34.5144C72.6076 34.142 72.1726 33.0246 71.4262 33.5833C70.9739 33.9218 70.6587 33.6451 70.3975 33.4158C70.2275 33.2666 70.0804 33.1374 69.9333 33.2108C69.2312 33.5611 68.9285 33.3024 68.4404 32.6522C68.0209 32.0935 67.6945 31.7459 66.7608 32.2797C65.554 32.9697 64.8947 31.3485 66.201 30.4174C66.5742 30.1514 66.3876 29.8587 64.5215 30.7899C63.0285 31.5348 63.0285 30.9761 66.0144 28.9276C66.3544 28.6942 66.6858 28.5789 66.9726 28.479C67.5026 28.2944 67.8805 28.1628 67.8805 27.4377C67.8805 27.3286 67.9125 27.2515 67.9391 27.1876C68.0031 27.0333 68.0351 26.9562 67.5073 26.6928C67.3136 26.5806 67.0865 26.4543 66.8509 26.3234C65.6259 25.6428 64.1727 24.8354 66.0144 25.203C67.8805 25.5754 67.8805 25.0167 66.3876 24.6443C66.0678 24.5645 65.7562 24.5772 65.4659 24.589C65.1113 24.6034 64.7884 24.6165 64.5215 24.4581C64.0657 24.1876 64.6196 24.0045 65.0373 23.8663C65.4826 23.7191 65.7731 23.623 64.5215 23.5269C63.4753 23.4466 62.9106 23.1946 62.2336 22.8925C61.6192 22.6183 60.9124 22.3029 59.6695 22.0371C59.6695 22.0371 57.99 21.4784 57.8034 20.5472ZM70.3065 16.6364C69.7467 16.4502 68.89 15.7251 68.8136 15.3328C68.7372 14.9405 69.2835 14.6361 69.56 14.7741C69.9333 14.9604 70.8663 15.7053 70.8663 16.4502C70.8663 16.8227 70.6788 16.7603 70.3065 16.6364Z" fill="url(#paint24_linear)"/>
<path fill-rule="evenodd" clip-rule="evenodd" d="M57.8034 20.5472C57.6167 19.6161 58.1766 19.2436 58.5498 19.2436C58.7029 19.2436 58.8455 19.2411 58.9819 19.2387C60.0214 19.2205 60.6973 19.2086 62.8419 20.361C63.1079 20.5039 63.3522 20.6535 63.5886 20.7982C64.3321 21.2533 64.9978 21.6608 66.0144 21.6646C66.5297 21.6665 66.6244 21.6661 67.1341 21.4784C67.4275 21.3703 67.2432 21.293 67.0077 21.1941C66.8342 21.1213 66.6329 21.0368 66.5742 20.9197C66.3789 20.5299 66.8927 20.5343 68.0066 20.5439C68.1962 20.5455 68.4031 20.5472 68.627 20.5472C69.1868 20.5472 69.56 19.9886 68.8136 19.2436C67.7186 18.1509 66.4094 17.1777 65.3566 16.3951C64.6838 15.8949 64.1156 15.4726 63.775 15.1466C62.9014 14.3106 63.4018 14.0292 64.1482 14.5879C64.8947 15.1466 65.1934 15.0266 65.2679 14.9604C65.3424 14.8941 65.4139 14.6119 65.2679 14.0292C65.0813 13.2843 65.3093 13.0506 65.8278 13.6568C66.5064 14.4502 67.3213 14.3095 66.7608 13.4705C66.3876 12.9118 66.0144 12.5394 65.0813 12.1669C64.3269 11.8658 62.7185 10.1037 61.933 9.24311C61.747 9.03933 61.6071 8.8861 61.5356 8.8148C60.9347 8.21507 62.242 8.922 63.4018 9.93217C64.6846 11.0495 65.3583 11.1931 66.5742 11.422C66.9996 11.5021 67.1376 11.4184 66.9474 10.8633C66.9374 10.8339 66.9253 10.8022 66.913 10.7695C66.8094 10.4963 66.683 10.163 67.5073 10.6771C68.4134 11.2422 68.9757 11.3958 69.403 11.5124C69.6798 11.588 69.8998 11.6481 70.1199 11.7945C70.4804 12.0343 70.5314 12.0425 70.5718 12.0676C70.5941 12.0815 70.6133 12.1006 70.6797 12.1669C70.6851 12.1723 70.6903 12.1775 70.6954 12.1826C70.8675 12.3546 70.889 12.3761 71.0529 12.1669C71.0529 12.1669 71.3987 11.6194 71.6128 11.422C71.8269 11.2246 71.9493 11.2615 72.1726 11.422C72.4874 11.6481 72.5459 11.6082 72.3592 10.8633C72.1821 10.1561 71.9323 9.62289 71.6808 9.08589C71.4561 8.60625 71.23 8.12358 71.0529 7.51119C70.7299 6.39381 70.5965 5.8292 70.6797 4.71775C70.748 3.80605 71.209 4.4229 71.9389 5.39968C71.9545 5.42051 71.9702 5.44151 71.986 5.46267C72.0773 5.58471 72.1204 5.66445 72.159 5.73582C72.206 5.82291 72.2464 5.89754 72.3592 6.02136C72.631 6.31951 72.7526 6.84589 72.9191 7.69742C73.611 11.2358 74.3525 12.6553 75.9049 14.2154C76.8546 15.1698 76.8275 14.943 76.6769 13.6846C76.6687 13.6163 76.6601 13.5449 76.6514 13.4705C76.2781 10.3046 77.1079 12.3974 77.2112 12.9118C77.6012 14.8529 77.9577 14.5879 78.8907 13.6568C79.2726 13.2757 79.2694 12.8261 79.265 12.1968C79.2645 12.127 79.264 12.055 79.264 11.9807C79.264 11.5962 79.3326 11.2933 79.3988 11.0009C79.4958 10.5722 79.5877 10.1663 79.4506 9.55971C79.1795 8.36033 79.6576 6.25844 80.5703 4.71775C81.1301 3.77263 81.3976 4.02159 81.5033 6.39381C81.5033 8.06988 81.1301 9.55971 80.7569 10.8633C80.1546 12.967 80.7569 16.0777 82.2498 16.4502C83.9293 16.8692 86.0152 14.0151 90.0876 8.25611C92.2686 5.17179 93.4278 4.29622 94.1931 5.27644C95.1262 6.47157 94.5921 7.31314 93.6332 8.06988C92.3269 9.10087 91.7674 9.63451 90.834 11.0495C90.5961 11.4102 90.2782 11.7985 89.9285 12.2257C89.3753 12.9013 88.7426 13.674 88.2214 14.5879C87.1034 16.5484 86.6134 17.6263 86.1687 19.9886C85.9233 21.2922 86.2545 21.3416 87.8482 20.7335C88.4824 20.4915 88.5406 20.6482 88.4081 21.4784C88.3332 21.9471 88.8299 22.3642 89.5277 22.5958C89.808 22.6888 89.9075 22.6515 89.901 22.2233C89.901 21.8508 90.3907 21.3621 90.834 20.9197C91.5805 20.1748 91.7671 21.2922 91.3939 22.0371C91.1983 22.4274 91.0561 23.1318 91.5805 23.1545C92.108 23.1772 92.5133 23.1484 92.8381 23.1253C93.7351 23.0615 94.0183 23.0413 94.5663 24.2718C94.7322 24.6443 94.6712 24.8631 94.0065 25.0167C93.5718 25.1172 92.9472 25.606 92.3538 26.0702C91.9284 26.4032 91.519 26.7235 91.2073 26.879C90.6474 27.1584 90.7229 27.3931 91.2073 27.4377C92.1403 27.5237 91.7671 28.7413 90.834 28.7413C90.4697 28.7413 90.0876 28.7413 89.901 28.5551C89.5401 28.195 88.7813 27.9964 88.5947 28.3689C88.2264 29.104 88.0596 29.238 87.5236 29.6686C87.4522 29.726 87.3742 29.7887 87.2884 29.8587C86.8317 30.2312 87.0994 30.3243 87.8482 30.4174C89.0363 30.5651 89.5496 31.1106 90.3182 31.9275C90.4766 32.0958 90.6458 32.2757 90.834 32.4659C91.8126 33.4552 92.3114 33.8891 93.26 34.5144C95.0559 35.6983 93.6332 37.3079 91.7671 36.0043C90.334 35.0032 89.121 34.4414 88.1281 33.9815C87.8281 33.8426 87.5482 33.7129 87.2884 33.5833C86.1687 33.0246 85.6606 33.0657 84.8624 34.142C84.3099 34.8869 84.8487 35.596 85.9821 36.0043C87.4364 36.5282 87.1711 36.9331 85.6088 36.7492C84.7516 36.6483 84.9772 36.9656 85.6088 37.4941C86.7217 38.4253 86.3553 38.9839 85.049 39.3564C84.3211 39.5639 84.4206 40.1603 84.5653 41.0284C84.6038 41.2595 84.6456 41.5099 84.6758 41.7774C84.6758 43.4535 83.7427 43.8259 81.8766 41.2187C81.7873 41.094 81.7193 40.9785 81.6592 40.8765C81.45 40.5216 81.3367 40.3291 80.7569 40.4738C80.3836 40.5669 80.1706 40.4301 80.0104 40.1013C79.6239 39.3081 78.8907 39.3564 79.264 40.1013C79.6176 40.807 79.5643 41.131 79.264 41.5912C78.8924 42.1605 78.7667 41.8425 78.4695 41.0903C78.3417 40.7668 78.1821 40.3631 77.9577 39.9151C77.8705 39.7412 77.7834 39.6079 77.7057 39.4891C77.4508 39.0991 77.2984 38.8658 77.5844 37.8666C77.7444 37.3079 77.5101 36.4159 76.2781 36.1905C75.6884 36.0826 75.0767 36.8386 74.2189 37.8989C73.991 38.1805 73.7458 38.4836 73.4789 38.7977C73.1057 39.1702 72.9511 39.4983 73.1057 39.9151C73.2603 40.3319 73.1057 40.66 72.7325 40.8462C72.208 41.1079 71.8604 41.5461 71.4909 42.012C71.203 42.375 70.9017 42.7548 70.4931 43.081C69.4584 43.907 69.3734 43.4535 70.1199 42.3361C70.271 42.1099 70.3958 41.9548 70.4978 41.8281C70.7081 41.5667 70.821 41.4264 70.8663 41.0325C70.8945 40.788 71.1072 40.303 71.3265 39.8032C71.6316 39.1076 71.9494 38.3835 71.7994 38.239C71.6778 38.1219 71.7244 37.84 71.7823 37.4897C71.8471 37.0975 71.9261 36.6196 71.7994 36.1905C71.6534 35.6958 71.9158 35.1795 72.3592 34.5144C72.6076 34.142 72.1726 33.0246 71.4262 33.5833C70.9739 33.9218 70.6587 33.6451 70.3975 33.4158C70.2275 33.2666 70.0804 33.1374 69.9333 33.2108C69.2312 33.5611 68.9285 33.3024 68.4404 32.6522C68.0209 32.0935 67.6945 31.7459 66.7608 32.2797C65.554 32.9697 64.8947 31.3485 66.201 30.4174C66.5742 30.1514 66.3876 29.8587 64.5215 30.7899C63.0285 31.5348 63.0285 30.9761 66.0144 28.9276C66.3544 28.6942 66.6858 28.5789 66.9726 28.479C67.5026 28.2944 67.8805 28.1628 67.8805 27.4377C67.8805 27.3286 67.9125 27.2515 67.9391 27.1876C68.0031 27.0333 68.0351 26.9562 67.5073 26.6928C67.3136 26.5806 67.0865 26.4543 66.8509 26.3234C65.6259 25.6428 64.1727 24.8354 66.0144 25.203C67.8805 25.5754 67.8805 25.0167 66.3876 24.6443C66.0678 24.5645 65.7562 24.5772 65.4659 24.589C65.1113 24.6034 64.7884 24.6165 64.5215 24.4581C64.0657 24.1876 64.6196 24.0045 65.0373 23.8663C65.4826 23.7191 65.7731 23.623 64.5215 23.5269C63.4753 23.4466 62.9106 23.1946 62.2336 22.8925C61.6192 22.6183 60.9124 22.3029 59.6695 22.0371C59.6695 22.0371 57.99 21.4784 57.8034 20.5472ZM70.3065 16.6364C69.7467 16.4502 68.89 15.7251 68.8136 15.3328C68.7372 14.9405 69.2835 14.6361 69.56 14.7741C69.9333 14.9604 70.8663 15.7053 70.8663 16.4502C70.8663 16.8227 70.6788 16.7603 70.3065 16.6364Z" fill="url(#paint25_linear)"/>
<path d="M0.15625 37.8696L3.38025 20.0076C3.39758 19.9382 3.44092 19.9036 3.51025 19.9036H7.28025C7.34958 19.9036 7.39292 19.9382 7.41025 20.0076L10.5043 37.8696C10.5216 37.9562 10.4869 37.9996 10.4003 37.9996H7.51425C7.44492 37.9996 7.40158 37.9562 7.38425 37.8696L7.09825 35.9716H3.56225L3.27625 37.8696C3.25892 37.9562 3.21558 37.9996 3.14625 37.9996H0.26025C0.190917 37.9996 0.15625 37.9562 0.15625 37.8696ZM4.08225 33.1896H6.57825L5.51225 25.8836L5.35625 24.9216L5.25225 25.8836L4.08225 33.1896Z" fill="#393840"/>
<path d="M12.24 37.9996C12.1706 37.9996 12.136 37.9562 12.136 37.8696L12.188 20.0076C12.188 19.9382 12.2226 19.9036 12.292 19.9036H17.544C18.48 19.9036 19.338 20.1376 20.118 20.6056C20.9153 21.0562 21.548 21.6716 22.016 22.4516C22.484 23.2142 22.718 24.0809 22.718 25.0516C22.718 25.6929 22.6226 26.2736 22.432 26.7936C22.2413 27.2962 22.016 27.7296 21.756 28.0936C21.496 28.4402 21.262 28.7002 21.054 28.8736C21.99 29.9136 22.458 31.1356 22.458 32.5396L22.484 37.8696C22.484 37.9562 22.4406 37.9996 22.354 37.9996H19.416C19.3466 37.9996 19.312 37.9736 19.312 37.9216V32.5396C19.312 31.9156 19.0866 31.3782 18.636 30.9276C18.2026 30.4596 17.6653 30.2256 17.024 30.2256H15.308L15.282 37.8696C15.282 37.9562 15.2473 37.9996 15.178 37.9996H12.24ZM15.308 27.1056H17.544C18.0813 27.1056 18.558 26.9062 18.974 26.5076C19.39 26.1089 19.598 25.6236 19.598 25.0516C19.598 24.4969 19.39 24.0202 18.974 23.6216C18.5753 23.2229 18.0986 23.0236 17.544 23.0236H15.308V27.1056Z" fill="#393840"/>
<path d="M26.7711 37.9996C26.7018 37.9996 26.6671 37.9562 26.6671 37.8696V23.0496H23.2871C23.2004 23.0496 23.1571 23.0062 23.1571 22.9196L23.1831 20.0076C23.1831 19.9382 23.2178 19.9036 23.2871 19.9036H33.1671C33.2538 19.9036 33.2971 19.9382 33.2971 20.0076V22.9196C33.2971 23.0062 33.2624 23.0496 33.1931 23.0496H29.7871L29.8131 37.8696C29.8131 37.9562 29.7784 37.9996 29.7091 37.9996H26.7711Z" fill="#393840"/>
<path d="M34.8153 37.9996C34.6766 37.9996 34.6073 37.9389 34.6073 37.8176L34.5813 20.1116C34.5813 19.9729 34.6506 19.9036 34.7893 19.9036H37.1293L41.5233 30.1476L41.3933 20.1116C41.3933 19.9729 41.4713 19.9036 41.6273 19.9036H44.2013C44.3053 19.9036 44.3573 19.9729 44.3573 20.1116L44.3833 37.8436C44.3833 37.9476 44.3399 37.9996 44.2533 37.9996H41.9653L37.4673 28.4316L37.6493 37.7916C37.6493 37.9302 37.5713 37.9996 37.4153 37.9996H34.8153Z" fill="#393840"/>
<path d="M45.7578 37.8696L48.9818 20.0076C48.9991 19.9382 49.0425 19.9036 49.1118 19.9036H52.8818C52.9511 19.9036 52.9945 19.9382 53.0118 20.0076L56.1058 37.8696C56.1231 37.9562 56.0885 37.9996 56.0018 37.9996H53.1158C53.0465 37.9996 53.0031 37.9562 52.9858 37.8696L52.6998 35.9716H49.1638L48.8778 37.8696C48.8605 37.9562 48.8171 37.9996 48.7478 37.9996H45.8618C45.7925 37.9996 45.7578 37.9562 45.7578 37.8696ZM49.6838 33.1896H52.1798L51.1138 25.8836L50.9578 24.9216L50.8538 25.8836L49.6838 33.1896Z" fill="#393840"/>
<path d="M57.8675 37.9996C57.7808 37.9996 57.7375 37.9562 57.7375 37.8696L57.7635 20.0076C57.7635 19.9382 57.7982 19.9036 57.8675 19.9036H60.7795C60.8488 19.9036 60.8835 19.9382 60.8835 20.0076L60.9095 37.8696C60.9095 37.9562 60.8748 37.9996 60.8055 37.9996H57.8675Z" fill="#393840"/>
<path d="M63.5544 37.9996C63.4851 37.9996 63.4504 37.9562 63.4504 37.8696L63.4764 20.0336C63.4764 19.9469 63.5197 19.9036 63.6064 19.9036H66.4924C66.5791 19.9036 66.6224 19.9469 66.6224 20.0336L66.5964 34.8016H71.9524C72.0391 34.8016 72.0824 34.8449 72.0824 34.9316V37.8696C72.0824 37.9562 72.0391 37.9996 71.9524 37.9996H63.5544Z" fill="#393840"/>
<path d="M77.5442 38.2596C76.6082 38.2596 75.7502 38.0256 74.9702 37.5576C74.2076 37.0722 73.5922 36.4396 73.1242 35.6596C72.6736 34.8622 72.4482 33.9869 72.4482 33.0336V31.8376C72.4482 31.7509 72.4916 31.7076 72.5782 31.7076H75.4902C75.5596 31.7076 75.5942 31.7509 75.5942 31.8376V33.0336C75.5942 33.6056 75.7849 34.0996 76.1662 34.5156C76.5476 34.9142 77.0069 35.1136 77.5442 35.1136C78.0816 35.1136 78.5409 34.9056 78.9222 34.4896C79.3036 34.0736 79.4942 33.5882 79.4942 33.0336C79.4942 32.3922 79.0782 31.8376 78.2462 31.3696C77.9689 31.2136 77.5356 30.9709 76.9462 30.6416C76.3569 30.3122 75.8022 30.0002 75.2822 29.7056C74.3289 29.1509 73.6182 28.4576 73.1502 27.6256C72.6996 26.7762 72.4742 25.8229 72.4742 24.7656C72.4742 23.7949 72.7082 22.9282 73.1762 22.1656C73.6442 21.3856 74.2596 20.7702 75.0222 20.3196C75.8022 19.8689 76.6429 19.6436 77.5442 19.6436C78.4629 19.6436 79.3036 19.8776 80.0662 20.3456C80.8462 20.7962 81.4616 21.4116 81.9122 22.1916C82.3802 22.9542 82.6142 23.8122 82.6142 24.7656V26.8976C82.6142 26.9669 82.5796 27.0016 82.5102 27.0016H79.5982C79.5289 27.0016 79.4942 26.9669 79.4942 26.8976L79.4682 24.7656C79.4682 24.1589 79.2776 23.6649 78.8962 23.2836C78.5149 22.9022 78.0642 22.7116 77.5442 22.7116C77.0069 22.7116 76.5476 22.9196 76.1662 23.3356C75.7849 23.7342 75.5942 24.2109 75.5942 24.7656C75.5942 25.3376 75.7156 25.8142 75.9582 26.1956C76.2009 26.5769 76.6429 26.9409 77.2842 27.2876C77.3709 27.3396 77.5356 27.4349 77.7782 27.5736C78.0382 27.6949 78.3156 27.8422 78.6102 28.0156C78.9049 28.1716 79.1649 28.3102 79.3902 28.4316C79.6329 28.5529 79.7802 28.6309 79.8322 28.6656C80.6989 29.1509 81.3836 29.7489 81.8862 30.4596C82.3889 31.1529 82.6402 32.0109 82.6402 33.0336C82.6402 34.0216 82.4062 34.9142 81.9382 35.7116C81.4876 36.4916 80.8722 37.1156 80.0922 37.5836C79.3296 38.0342 78.4802 38.2596 77.5442 38.2596Z" fill="#393840"/>
<path d="M5.18023 46.5803C5.8709 46.5803 6.49623 46.739 7.05623 47.0563C7.61623 47.3643 8.0549 47.803 8.37223 48.3723C8.68956 48.9416 8.84823 49.5903 8.84823 50.3183C8.84823 51.0463 8.68956 51.695 8.37223 52.2643C8.0549 52.8336 7.61623 53.277 7.05623 53.5943C6.49623 53.9116 5.8709 54.0703 5.18023 54.0703C4.56423 54.0703 4.0089 53.9396 3.51423 53.6783C3.0289 53.417 2.6369 53.039 2.33823 52.5443V54.0003H1.38623V43.6123H2.38023V48.0363C2.68823 47.5603 3.08023 47.201 3.55623 46.9583C4.04156 46.7063 4.5829 46.5803 5.18023 46.5803ZM5.11023 53.1883C5.62356 53.1883 6.09023 53.0716 6.51023 52.8383C6.93023 52.5956 7.2569 52.255 7.49023 51.8163C7.7329 51.3776 7.85423 50.8783 7.85423 50.3183C7.85423 49.7583 7.7329 49.259 7.49023 48.8203C7.2569 48.3816 6.93023 48.0456 6.51023 47.8123C6.09023 47.5696 5.62356 47.4483 5.11023 47.4483C4.58756 47.4483 4.11623 47.5696 3.69623 47.8123C3.28556 48.0456 2.9589 48.3816 2.71623 48.8203C2.4829 49.259 2.36623 49.7583 2.36623 50.3183C2.36623 50.8783 2.4829 51.3776 2.71623 51.8163C2.9589 52.255 3.28556 52.5956 3.69623 52.8383C4.11623 53.0716 4.58756 53.1883 5.11023 53.1883Z" fill="#393840"/>
<path d="M16.6845 54.0703C15.9752 54.0703 15.3358 53.9116 14.7665 53.5943C14.1972 53.2676 13.7492 52.8196 13.4225 52.2503C13.0958 51.681 12.9325 51.037 12.9325 50.3183C12.9325 49.5996 13.0958 48.9556 13.4225 48.3863C13.7492 47.817 14.1972 47.3736 14.7665 47.0563C15.3358 46.739 15.9752 46.5803 16.6845 46.5803C17.3938 46.5803 18.0332 46.739 18.6025 47.0563C19.1718 47.3736 19.6152 47.817 19.9325 48.3863C20.2592 48.9556 20.4225 49.5996 20.4225 50.3183C20.4225 51.037 20.2592 51.681 19.9325 52.2503C19.6152 52.8196 19.1718 53.2676 18.6025 53.5943C18.0332 53.9116 17.3938 54.0703 16.6845 54.0703ZM16.6845 53.1883C17.2072 53.1883 17.6738 53.0716 18.0845 52.8383C18.5045 52.5956 18.8312 52.255 19.0645 51.8163C19.2978 51.3776 19.4145 50.8783 19.4145 50.3183C19.4145 49.7583 19.2978 49.259 19.0645 48.8203C18.8312 48.3816 18.5045 48.0456 18.0845 47.8123C17.6738 47.5696 17.2072 47.4483 16.6845 47.4483C16.1618 47.4483 15.6905 47.5696 15.2705 47.8123C14.8598 48.0456 14.5332 48.3816 14.2905 48.8203C14.0572 49.259 13.9405 49.7583 13.9405 50.3183C13.9405 50.8783 14.0572 51.3776 14.2905 51.8163C14.5332 52.255 14.8598 52.5956 15.2705 52.8383C15.6905 53.0716 16.1618 53.1883 16.6845 53.1883Z" fill="#393840"/>
<path d="M31.8879 46.6363V54.0003H30.9359V52.6563C30.6745 53.1043 30.3152 53.4543 29.8579 53.7063C29.4005 53.949 28.8779 54.0703 28.2899 54.0703C27.3285 54.0703 26.5679 53.8043 26.0079 53.2723C25.4572 52.731 25.1819 51.9423 25.1819 50.9063V46.6363H26.1759V50.8083C26.1759 51.583 26.3672 52.171 26.7499 52.5723C27.1325 52.9736 27.6785 53.1743 28.3879 53.1743C29.1625 53.1743 29.7739 52.941 30.2219 52.4743C30.6699 51.9983 30.8939 51.3403 30.8939 50.5003V46.6363H31.8879Z" fill="#393840"/>
<path d="M41.3498 53.5523C41.1631 53.7203 40.9298 53.851 40.6498 53.9443C40.3791 54.0283 40.0944 54.0703 39.7958 54.0703C39.1051 54.0703 38.5731 53.8836 38.1998 53.5103C37.8264 53.137 37.6398 52.6096 37.6398 51.9283V47.4763H36.3238V46.6363H37.6398V45.0263H38.6338V46.6363H40.8738V47.4763H38.6338V51.8723C38.6338 52.311 38.7411 52.647 38.9558 52.8803C39.1798 53.1043 39.4971 53.2163 39.9078 53.2163C40.1131 53.2163 40.3091 53.1836 40.4958 53.1183C40.6918 53.053 40.8598 52.9596 40.9998 52.8383L41.3498 53.5523Z" fill="#393840"/>
<path d="M45.9593 46.6363H46.9533V54.0003H45.9593V46.6363ZM46.4633 45.0263C46.2579 45.0263 46.0853 44.9563 45.9453 44.8163C45.8053 44.6763 45.7353 44.5083 45.7353 44.3123C45.7353 44.1256 45.8053 43.9623 45.9453 43.8223C46.0853 43.6823 46.2579 43.6123 46.4633 43.6123C46.6686 43.6123 46.8413 43.6823 46.9813 43.8223C47.1213 43.953 47.1913 44.1116 47.1913 44.2983C47.1913 44.5036 47.1213 44.6763 46.9813 44.8163C46.8413 44.9563 46.6686 45.0263 46.4633 45.0263Z" fill="#393840"/>
<path d="M59.239 46.6363V56.7163H58.245V52.6143C57.937 53.0903 57.5404 53.4543 57.055 53.7063C56.579 53.949 56.0424 54.0703 55.445 54.0703C54.745 54.0703 54.115 53.9163 53.555 53.6083C53.0044 53.291 52.5704 52.8476 52.253 52.2783C51.9357 51.709 51.777 51.0556 51.777 50.3183C51.777 49.5903 51.9357 48.9416 52.253 48.3723C52.5704 47.803 53.009 47.3643 53.569 47.0563C54.129 46.739 54.7544 46.5803 55.445 46.5803C56.061 46.5803 56.6117 46.711 57.097 46.9723C57.5917 47.2336 57.9884 47.607 58.287 48.0923V46.6363H59.239ZM55.529 53.1883C56.0424 53.1883 56.5044 53.0716 56.915 52.8383C57.335 52.5956 57.6617 52.255 57.895 51.8163C58.1377 51.3776 58.259 50.8783 58.259 50.3183C58.259 49.7583 58.1377 49.2636 57.895 48.8343C57.6617 48.3956 57.335 48.055 56.915 47.8123C56.5044 47.5696 56.0424 47.4483 55.529 47.4483C55.0064 47.4483 54.535 47.5696 54.115 47.8123C53.7044 48.055 53.3777 48.3956 53.135 48.8343C52.9017 49.2636 52.785 49.7583 52.785 50.3183C52.785 50.8783 52.9017 51.3776 53.135 51.8163C53.3777 52.255 53.7044 52.5956 54.115 52.8383C54.535 53.0716 55.0064 53.1883 55.529 53.1883Z" fill="#393840"/>
<path d="M71.4433 46.6363V54.0003H70.4913V52.6563C70.23 53.1043 69.8707 53.4543 69.4133 53.7063C68.956 53.949 68.4333 54.0703 67.8453 54.0703C66.884 54.0703 66.1233 53.8043 65.5633 53.2723C65.0127 52.731 64.7373 51.9423 64.7373 50.9063V46.6363H65.7313V50.8083C65.7313 51.583 65.9227 52.171 66.3053 52.5723C66.688 52.9736 67.234 53.1743 67.9433 53.1743C68.718 53.1743 69.3293 52.941 69.7773 52.4743C70.2253 51.9983 70.4493 51.3403 70.4493 50.5003V46.6363H71.4433Z" fill="#393840"/>
<path d="M83.4392 50.6263H77.2792C77.3352 51.3916 77.6292 52.0123 78.1612 52.4883C78.6932 52.955 79.3652 53.1883 80.1772 53.1883C80.6346 53.1883 81.0546 53.109 81.4372 52.9503C81.8199 52.7823 82.1512 52.5396 82.4312 52.2223L82.9912 52.8663C82.6646 53.2583 82.2539 53.557 81.7592 53.7623C81.2739 53.9676 80.7372 54.0703 80.1492 54.0703C79.3932 54.0703 78.7212 53.9116 78.1332 53.5943C77.5546 53.2676 77.1019 52.8196 76.7752 52.2503C76.4486 51.681 76.2852 51.037 76.2852 50.3183C76.2852 49.5996 76.4392 48.9556 76.7472 48.3863C77.0646 47.817 77.4939 47.3736 78.0352 47.0563C78.5859 46.739 79.2019 46.5803 79.8832 46.5803C80.5646 46.5803 81.1759 46.739 81.7172 47.0563C82.2586 47.3736 82.6832 47.817 82.9912 48.3863C83.2992 48.9463 83.4532 49.5903 83.4532 50.3183L83.4392 50.6263ZM79.8832 47.4343C79.1739 47.4343 78.5766 47.663 78.0912 48.1203C77.6152 48.5683 77.3446 49.1563 77.2792 49.8843H82.5012C82.4359 49.1563 82.1606 48.5683 81.6752 48.1203C81.1992 47.663 80.6019 47.4343 79.8832 47.4343Z" fill="#393840"/>
<defs>
<linearGradient id="paint0_linear" x1="54" y1="0" x2="75.1155" y2="-11.0449" gradientUnits="userSpaceOnUse">
<stop stop-color="#00E2C7"/>
<stop offset="1" stop-color="#00B3DB"/>
</linearGradient>
<linearGradient id="paint1_linear" x1="54" y1="0" x2="75.1155" y2="-11.0449" gradientUnits="userSpaceOnUse">
<stop stop-color="#01BBA5"/>
<stop offset="1" stop-color="#009FC2"/>
</linearGradient>
<linearGradient id="paint2_linear" x1="54" y1="0" x2="75.1155" y2="-11.0449" gradientUnits="userSpaceOnUse">
<stop stop-color="#00E2C7"/>
<stop offset="1" stop-color="#00B3DB"/>
</linearGradient>
<linearGradient id="paint3_linear" x1="54" y1="0" x2="75.1155" y2="-11.0449" gradientUnits="userSpaceOnUse">
<stop stop-color="#01BBA5"/>
<stop offset="1" stop-color="#009FC2"/>
</linearGradient>
<linearGradient id="paint4_linear" x1="54" y1="0" x2="75.1155" y2="-11.0449" gradientUnits="userSpaceOnUse">
<stop stop-color="#00E2C7"/>
<stop offset="1" stop-color="#00B3DB"/>
</linearGradient>
<linearGradient id="paint5_linear" x1="54" y1="0" x2="75.1155" y2="-11.0449" gradientUnits="userSpaceOnUse">
<stop stop-color="#01BBA5"/>
<stop offset="1" stop-color="#009FC2"/>
</linearGradient>
<linearGradient id="paint6_linear" x1="54" y1="0" x2="75.1155" y2="-11.0449" gradientUnits="userSpaceOnUse">
<stop stop-color="#00E2C7"/>
<stop offset="1" stop-color="#00B3DB"/>
</linearGradient>
<linearGradient id="paint7_linear" x1="54" y1="0" x2="75.1155" y2="-11.0449" gradientUnits="userSpaceOnUse">
<stop stop-color="#01BBA5"/>
<stop offset="1" stop-color="#009FC2"/>
</linearGradient>
<linearGradient id="paint8_linear" x1="54" y1="0" x2="75.1155" y2="-11.0449" gradientUnits="userSpaceOnUse">
<stop stop-color="#00E2C7"/>
<stop offset="1" stop-color="#00B3DB"/>
</linearGradient>
<linearGradient id="paint9_linear" x1="54" y1="0" x2="75.1155" y2="-11.0449" gradientUnits="userSpaceOnUse">
<stop stop-color="#01BBA5"/>
<stop offset="1" stop-color="#009FC2"/>
</linearGradient>
<linearGradient id="paint10_linear" x1="54" y1="0" x2="75.1155" y2="-11.0449" gradientUnits="userSpaceOnUse">
<stop stop-color="#00E2C7"/>
<stop offset="1" stop-color="#00B3DB"/>
</linearGradient>
<linearGradient id="paint11_linear" x1="54" y1="0" x2="75.1155" y2="-11.0449" gradientUnits="userSpaceOnUse">
<stop stop-color="#01BBA5"/>
<stop offset="1" stop-color="#009FC2"/>
</linearGradient>
<linearGradient id="paint12_linear" x1="54" y1="0" x2="75.1155" y2="-11.0449" gradientUnits="userSpaceOnUse">
<stop stop-color="#00E2C7"/>
<stop offset="1" stop-color="#00B3DB"/>
</linearGradient>
<linearGradient id="paint13_linear" x1="54" y1="0" x2="75.1155" y2="-11.0449" gradientUnits="userSpaceOnUse">
<stop stop-color="#01BBA5"/>
<stop offset="1" stop-color="#009FC2"/>
</linearGradient>
<linearGradient id="paint14_linear" x1="54" y1="0" x2="75.1155" y2="-11.0449" gradientUnits="userSpaceOnUse">
<stop stop-color="#00E2C7"/>
<stop offset="1" stop-color="#00B3DB"/>
</linearGradient>
<linearGradient id="paint15_linear" x1="54" y1="0" x2="75.1155" y2="-11.0449" gradientUnits="userSpaceOnUse">
<stop stop-color="#01BBA5"/>
<stop offset="1" stop-color="#009FC2"/>
</linearGradient>
<linearGradient id="paint16_linear" x1="54" y1="0" x2="75.1155" y2="-11.0449" gradientUnits="userSpaceOnUse">
<stop stop-color="#00E2C7"/>
<stop offset="1" stop-color="#00B3DB"/>
</linearGradient>
<linearGradient id="paint17_linear" x1="54" y1="0" x2="75.1155" y2="-11.0449" gradientUnits="userSpaceOnUse">
<stop stop-color="#01BBA5"/>
<stop offset="1" stop-color="#009FC2"/>
</linearGradient>
<linearGradient id="paint18_linear" x1="54" y1="0" x2="75.1155" y2="-11.0449" gradientUnits="userSpaceOnUse">
<stop stop-color="#00E2C7"/>
<stop offset="1" stop-color="#00B3DB"/>
</linearGradient>
<linearGradient id="paint19_linear" x1="54" y1="0" x2="75.1155" y2="-11.0449" gradientUnits="userSpaceOnUse">
<stop stop-color="#01BBA5"/>
<stop offset="1" stop-color="#009FC2"/>
</linearGradient>
<linearGradient id="paint20_linear" x1="54" y1="0" x2="75.1155" y2="-11.0449" gradientUnits="userSpaceOnUse">
<stop stop-color="#00E2C7"/>
<stop offset="1" stop-color="#00B3DB"/>
</linearGradient>
<linearGradient id="paint21_linear" x1="54" y1="0" x2="75.1155" y2="-11.0449" gradientUnits="userSpaceOnUse">
<stop stop-color="#01BBA5"/>
<stop offset="1" stop-color="#009FC2"/>
</linearGradient>
<linearGradient id="paint22_linear" x1="54" y1="0" x2="75.1155" y2="-11.0449" gradientUnits="userSpaceOnUse">
<stop stop-color="#00E2C7"/>
<stop offset="1" stop-color="#00B3DB"/>
</linearGradient>
<linearGradient id="paint23_linear" x1="54" y1="0" x2="75.1155" y2="-11.0449" gradientUnits="userSpaceOnUse">
<stop stop-color="#01BBA5"/>
<stop offset="1" stop-color="#009FC2"/>
</linearGradient>
<linearGradient id="paint24_linear" x1="54" y1="0" x2="75.1155" y2="-11.0449" gradientUnits="userSpaceOnUse">
<stop stop-color="#00E2C7"/>
<stop offset="1" stop-color="#00B3DB"/>
</linearGradient>
<linearGradient id="paint25_linear" x1="54" y1="0" x2="75.1155" y2="-11.0449" gradientUnits="userSpaceOnUse">
<stop stop-color="#01BBA5"/>
<stop offset="1" stop-color="#009FC2"/>
</linearGradient>
</defs>
</svg>
